%YAML 1.1
%TAG !u! tag:unity3d.com,2011:
--- !u!1 &2639666534898384188
GameObject:
  m_ObjectHideFlags: 0
  m_CorrespondingSourceObject: {fileID: 0}
  m_PrefabInstance: {fileID: 0}
  m_PrefabAsset: {fileID: 0}
  serializedVersion: 6
  m_Component:
  - component: {fileID: 3452618341542979462}
  m_Layer: 8
  m_Name: PF_StoneSteps_Straight_Walls
  m_TagString: Untagged
  m_Icon: {fileID: 0}
  m_NavMeshLayer: 0
  m_StaticEditorFlags: 4294967295
  m_IsActive: 1
--- !u!4 &3452618341542979462
Transform:
  m_ObjectHideFlags: 0
  m_CorrespondingSourceObject: {fileID: 0}
  m_PrefabInstance: {fileID: 0}
  m_PrefabAsset: {fileID: 0}
  m_GameObject: {fileID: 2639666534898384188}
  m_LocalRotation: {x: 0, y: 0, z: 0, w: 1}
  m_LocalPosition: {x: 0, y: 0, z: 0}
  m_LocalScale: {x: 1, y: 1, z: 1}
  m_Children:
  - {fileID: 7123039125777934113}
  - {fileID: 1334361360534932695}
  - {fileID: 5986700738445646610}
  m_Father: {fileID: 0}
  m_RootOrder: 0
  m_LocalEulerAnglesHint: {x: 0, y: 0, z: 0}
--- !u!1 &7575988626902992816
GameObject:
  m_ObjectHideFlags: 0
  m_CorrespondingSourceObject: {fileID: 0}
  m_PrefabInstance: {fileID: 0}
  m_PrefabAsset: {fileID: 0}
  serializedVersion: 6
  m_Component:
  - component: {fileID: 7123039125777934113}
  - component: {fileID: 2034546102943065711}
  - component: {fileID: 3404076670235251188}
  m_Layer: 8
  m_Name: StoneSteps_Straight_LOD0
  m_TagString: Untagged
  m_Icon: {fileID: 0}
  m_NavMeshLayer: 0
  m_StaticEditorFlags: 4294967295
  m_IsActive: 1
--- !u!4 &7123039125777934113
Transform:
  m_ObjectHideFlags: 0
  m_CorrespondingSourceObject: {fileID: 0}
  m_PrefabInstance: {fileID: 0}
  m_PrefabAsset: {fileID: 0}
  m_GameObject: {fileID: 7575988626902992816}
  m_LocalRotation: {x: 0, y: -0, z: -0, w: 1}
  m_LocalPosition: {x: -0, y: 0, z: 0}
  m_LocalScale: {x: 1, y: 1, z: 1}
  m_Children: []
  m_Father: {fileID: 3452618341542979462}
  m_RootOrder: 0
  m_LocalEulerAnglesHint: {x: 0, y: 0, z: 0}
--- !u!33 &2034546102943065711
MeshFilter:
  m_ObjectHideFlags: 0
  m_CorrespondingSourceObject: {fileID: 0}
  m_PrefabInstance: {fileID: 0}
  m_PrefabAsset: {fileID: 0}
  m_GameObject: {fileID: 7575988626902992816}
  m_Mesh: {fileID: -8568162464301945832, guid: f5897c7675d631b438755b5fbf27bb3b, type: 3}
--- !u!23 &3404076670235251188
MeshRenderer:
  m_ObjectHideFlags: 0
  m_CorrespondingSourceObject: {fileID: 0}
  m_PrefabInstance: {fileID: 0}
  m_PrefabAsset: {fileID: 0}
  m_GameObject: {fileID: 7575988626902992816}
  m_Enabled: 1
  m_CastShadows: 1
  m_ReceiveShadows: 1
  m_DynamicOccludee: 1
  m_MotionVectors: 1
  m_LightProbeUsage: 1
  m_ReflectionProbeUsage: 1
  m_RayTracingMode: 2
  m_RenderingLayerMask: 1
  m_RendererPriority: 0
  m_Materials:
  - {fileID: 2100000, guid: c9b56a5d4c962f64da98bab0a8698719, type: 2}
  m_StaticBatchInfo:
    firstSubMesh: 0
    subMeshCount: 0
  m_StaticBatchRoot: {fileID: 0}
  m_ProbeAnchor: {fileID: 0}
  m_LightProbeVolumeOverride: {fileID: 0}
  m_ScaleInLightmap: 1
  m_ReceiveGI: 1
  m_PreserveUVs: 0
  m_IgnoreNormalsForChartDetection: 0
  m_ImportantGI: 0
  m_StitchLightmapSeams: 1
  m_SelectedEditorRenderState: 3
  m_MinimumChartSize: 4
  m_AutoUVMaxDistance: 0.5
  m_AutoUVMaxAngle: 89
  m_LightmapParameters: {fileID: 0}
  m_SortingLayerID: 0
  m_SortingLayer: 0
  m_SortingOrder: 0
--- !u!1001 &1517189616930417468
PrefabInstance:
  m_ObjectHideFlags: 0
  serializedVersion: 2
  m_Modification:
    m_TransformParent: {fileID: 3452618341542979462}
    m_Modifications:
    - target: {fileID: -9158508421174638640, guid: ae572a5768b25b140811c06ad7d07aa5,
        type: 3}
      propertyPath: m_StaticEditorFlags
      value: 1
      objectReference: {fileID: 0}
    - target: {fileID: -8679921383154817045, guid: ae572a5768b25b140811c06ad7d07aa5,
        type: 3}
      propertyPath: m_LocalPosition.x
      value: -0
      objectReference: {fileID: 0}
    - target: {fileID: -8679921383154817045, guid: ae572a5768b25b140811c06ad7d07aa5,
        type: 3}
      propertyPath: m_LocalPosition.y
      value: 0
      objectReference: {fileID: 0}
    - target: {fileID: -8679921383154817045, guid: ae572a5768b25b140811c06ad7d07aa5,
        type: 3}
      propertyPath: m_LocalPosition.z
      value: -0.534
      objectReference: {fileID: 0}
    - target: {fileID: -8679921383154817045, guid: ae572a5768b25b140811c06ad7d07aa5,
        type: 3}
      propertyPath: m_LocalRotation.x
      value: 0
      objectReference: {fileID: 0}
    - target: {fileID: -8679921383154817045, guid: ae572a5768b25b140811c06ad7d07aa5,
        type: 3}
      propertyPath: m_LocalRotation.y
      value: -0
      objectReference: {fileID: 0}
    - target: {fileID: -8679921383154817045, guid: ae572a5768b25b140811c06ad7d07aa5,
        type: 3}
      propertyPath: m_LocalRotation.z
      value: -0
      objectReference: {fileID: 0}
    - target: {fileID: -8679921383154817045, guid: ae572a5768b25b140811c06ad7d07aa5,
        type: 3}
      propertyPath: m_LocalRotation.w
      value: 1
      objectReference: {fileID: 0}
    - target: {fileID: -8679921383154817045, guid: ae572a5768b25b140811c06ad7d07aa5,
        type: 3}
      propertyPath: m_RootOrder
      value: 1
      objectReference: {fileID: 0}
    - target: {fileID: -8679921383154817045, guid: ae572a5768b25b140811c06ad7d07aa5,
        type: 3}
      propertyPath: m_LocalEulerAnglesHint.x
      value: 0
      objectReference: {fileID: 0}
    - target: {fileID: -8679921383154817045, guid: ae572a5768b25b140811c06ad7d07aa5,
        type: 3}
      propertyPath: m_LocalEulerAnglesHint.y
      value: 0
      objectReference: {fileID: 0}
    - target: {fileID: -8679921383154817045, guid: ae572a5768b25b140811c06ad7d07aa5,
        type: 3}
      propertyPath: m_LocalEulerAnglesHint.z
      value: 0
      objectReference: {fileID: 0}
    - target: {fileID: -8535695893188432716, guid: ae572a5768b25b140811c06ad7d07aa5,
        type: 3}
      propertyPath: m_StaticEditorFlags
      value: 1
      objectReference: {fileID: 0}
    - target: {fileID: 919132149155446097, guid: ae572a5768b25b140811c06ad7d07aa5,
        type: 3}
      propertyPath: m_Name
      value: mesh_StoneWall_Straight_Steps
      objectReference: {fileID: 0}
    m_RemovedComponents: []
  m_SourcePrefab: {fileID: 100100000, guid: ae572a5768b25b140811c06ad7d07aa5, type: 3}
--- !u!4 &1334361360534932695 stripped
Transform:
  m_CorrespondingSourceObject: {fileID: -8679921383154817045, guid: ae572a5768b25b140811c06ad7d07aa5,
    type: 3}
  m_PrefabInstance: {fileID: 1517189616930417468}
  m_PrefabAsset: {fileID: 0}
--- !u!1001 &6097788027069955321
PrefabInstance:
  m_ObjectHideFlags: 0
  serializedVersion: 2
  m_Modification:
    m_TransformParent: {fileID: 3452618341542979462}
    m_Modifications:
    - target: {fileID: -9158508421174638640, guid: ae572a5768b25b140811c06ad7d07aa5,
        type: 3}
      propertyPath: m_StaticEditorFlags
      value: 1
      objectReference: {fileID: 0}
    - target: {fileID: -8679921383154817045, guid: ae572a5768b25b140811c06ad7d07aa5,
        type: 3}
      propertyPath: m_LocalPosition.x
      value: -0
      objectReference: {fileID: 0}
    - target: {fileID: -8679921383154817045, guid: ae572a5768b25b140811c06ad7d07aa5,
        type: 3}
      propertyPath: m_LocalPosition.y
      value: 0
      objectReference: {fileID: 0}
    - target: {fileID: -8679921383154817045, guid: ae572a5768b25b140811c06ad7d07aa5,
        type: 3}
      propertyPath: m_LocalPosition.z
      value: 0.523
      objectReference: {fileID: 0}
    - target: {fileID: -8679921383154817045, guid: ae572a5768b25b140811c06ad7d07aa5,
        type: 3}
      propertyPath: m_LocalRotation.x
      value: 0
      objectReference: {fileID: 0}
    - target: {fileID: -8679921383154817045, guid: ae572a5768b25b140811c06ad7d07aa5,
        type: 3}
      propertyPath: m_LocalRotation.y
      value: -0
      objectReference: {fileID: 0}
    - target: {fileID: -8679921383154817045, guid: ae572a5768b25b140811c06ad7d07aa5,
        type: 3}
      propertyPath: m_LocalRotation.z
      value: -0
      objectReference: {fileID: 0}
    - target: {fileID: -8679921383154817045, guid: ae572a5768b25b140811c06ad7d07aa5,
        type: 3}
      propertyPath: m_LocalRotation.w
      value: 1
      objectReference: {fileID: 0}
    - target: {fileID: -8679921383154817045, guid: ae572a5768b25b140811c06ad7d07aa5,
        type: 3}
      propertyPath: m_RootOrder
      value: 2
      objectReference: {fileID: 0}
    - target: {fileID: -8679921383154817045, guid: ae572a5768b25b140811c06ad7d07aa5,
        type: 3}
      propertyPath: m_LocalEulerAnglesHint.x
      value: 0
      objectReference: {fileID: 0}
    - target: {fileID: -8679921383154817045, guid: ae572a5768b25b140811c06ad7d07aa5,
        type: 3}
      propertyPath: m_LocalEulerAnglesHint.y
      value: 0
      objectReference: {fileID: 0}
    - target: {fileID: -8679921383154817045, guid: ae572a5768b25b140811c06ad7d07aa5,
        type: 3}
      propertyPath: m_LocalEulerAnglesHint.z
      value: 0
      objectReference: {fileID: 0}
    - target: {fileID: -8679921383154817045, guid: ae572a5768b25b140811c06ad7d07aa5,
        type: 3}
      propertyPath: m_LocalScale.z
      value: -1
      objectReference: {fileID: 0}
    - target: {fileID: -8535695893188432716, guid: ae572a5768b25b140811c06ad7d07aa5,
        type: 3}
      propertyPath: m_StaticEditorFlags
      value: 1
      objectReference: {fileID: 0}
    - target: {fileID: 919132149155446097, guid: ae572a5768b25b140811c06ad7d07aa5,
        type: 3}
      propertyPath: m_Name
      value: mesh_StoneWall_Straight_Steps (1)
      objectReference: {fileID: 0}
    m_RemovedComponents: []
  m_SourcePrefab: {fileID: 100100000, guid: ae572a5768b25b140811c06ad7d07aa5, type: 3}
--- !u!4 &5986700738445646610 stripped
Transform:
  m_CorrespondingSourceObject: {fileID: -8679921383154817045, guid: ae572a5768b25b140811c06ad7d07aa5,
    type: 3}
  m_PrefabInstance: {fileID: 6097788027069955321}
  m_PrefabAsset: {fileID: 0}
