%YAML 1.1
%TAG !u! tag:unity3d.com,2011:
--- !u!114 &11400000
MonoBehaviour:
  m_ObjectHideFlags: 0
  m_CorrespondingSourceObject: {fileID: 0}
  m_PrefabInstance: {fileID: 0}
  m_PrefabAsset: {fileID: 0}
  m_GameObject: {fileID: 0}
  m_Enabled: 1
  m_EditorHideFlags: 0
  m_Script: {fileID: 11500000, guid: a225579586cbb8347b2ff8391c5eb9a7, type: 3}
  m_Name: Mago
  m_EditorClassIdentifier: 
  sprite: {fileID: 6937817954938267909, guid: ebf0b638ef6445e41976a1e602e1b5a9, type: 3}
  modelPrefab: {fileID: 159094, guid: 9ccc038f2ce020741b71a9c5c9cb8df4, type: 3}
  healthPoints: 10
  attackDamage: 1
  attackSpeed: 1
  defense: 1
  magicDefense: 1
  range: 3
  resource: 20
  recourceCreateRate: 2
