%YAML 1.1
%TAG !u! tag:unity3d.com,2011:
--- !u!114 &11400000
MonoBehaviour:
  m_ObjectHideFlags: 0
  m_CorrespondingSourceObject: {fileID: 0}
  m_PrefabInstance: {fileID: 0}
  m_PrefabAsset: {fileID: 0}
  m_GameObject: {fileID: 0}
  m_Enabled: 1
  m_EditorHideFlags: 0
  m_Script: {fileID: 11500000, guid: a225579586cbb8347b2ff8391c5eb9a7, type: 3}
  m_Name: Sanador
  m_EditorClassIdentifier: 
  sprite: {fileID: 4113829005332862926, guid: 3e1714ff4061d454894033671a8dcaa8, type: 3}
  modelPrefab: {fileID: 182486, guid: fd379e3590dd39c438fd166faf771de7, type: 3}
  healthPoints: 10
  attackDamage: 1
  attackSpeed: 1
  defense: 2
  magicDefense: 2
  range: 3
  resource: 20
  recourceCreateRate: 2
